
import java.util.*;
public class Main
{
	public static void main(String[] args) 
	{
	    
	    
	    Scanner sc= new Scanner(System.in);
	    
        System.out.print("Number of terms is : ");
        
        int num = sc.nextInt();
        
        int sum = 0;

        for (int i=1;i<=num;i++)
        
        {
            
            System.out.println(2*i-1);
            
            sum = sum + (2*i-1);
        }
        
        System.out.println("The Sum of first 5 odd number is "+sum);
	    
	}
}
