
import java.util.*;
public class Main
{
	public static void main(String[] args) 
	{
	    
	    Scanner sc=new Scanner(System.in);
	    
	   String s2=sc.nextLine();
	   
	   int i,j;
	   
	   for (i = 0; i <= s2.length() - 1; i++)
	   
	   {
	       
	       if (s2.substring(i).startsWith(" ") || i == 0)
	       
	       {
	           
	           for (j = i + 1; j <= s2.length() - 1; j++)
	           
	           {
	               
	               if (s2.substring(j).startsWith(" ") || j == s2.length() - 1)
	               
	               { 
	                   
	                   System.out.println(s2.substring(i, j));
	                   
	                   i = j;
	                   
	               }
	               
	           }
	           
	       }
	       
	   }
	    
	}
}
